INDEX VERSION 1.130+C:\TMS Auto\autotest\.metadata\.plugins\org.eclipse.jdt.core
678160306.index
2005103148.index
2740512329.index
280863382.index
2846405997.index
2487400705.index
1688235150.index
133316958.index
4147208983.index
1944070192.index
739442128.index
2258830503.index
436237060.index
2177066123.index
1078287000.index
3594505535.index
2949296873.index
2914492406.index
4118443721.index
1421056501.index
1174830787.index
1212816415.index
2417908806.index
3792630938.index
2664657818.index
3078167606.index
3759178557.index
2931426088.index
3212037094.index
1380254383.index
910576745.index
3080879050.index
2484175354.index
3179782748.index
2944424826.index
4203987122.index
42633934.index
2723661939.index
2409850791.index
1506641091.index
1576876686.index
1915191729.index
4275807544.index
3295660623.index
3113636161.index
326820869.index
592452885.index
1930243844.index
3607469270.index
455135254.index
3245871006.index
3775098427.index
4083673221.index
3143591613.index
992054375.index
1565514586.index
239321352.index
3924031623.index
1870156658.index
2830049544.index
3052204553.index
3330316361.index
441830497.index
980029179.index
197911843.index
1664992969.index
1812004112.index
1294998851.index
1066039421.index
2695568457.index
550174276.index
3999993782.index
2568156398.index
1115324136.index
4043693734.index
599694935.index
723622572.index
153702015.index
446401028.index
3953968964.index
2854098321.index
1016703766.index
1481841674.index
1821544937.index
4261771048.index
1924447211.index
713818288.index
2969034858.index
1919409528.index
4268093026.index
2681924543.index
2529338087.index
2375769789.index
71346320.index
1090022228.index
3939963113.index
4129501054.index
3518053900.index
4223851040.index
